[gd_scene load_steps=7 format=3 uid="uid://dq7m741awvgj4"]

[ext_resource type="Script" path="res://dialogue/balloon.gd" id="1_q1uu0"]
[ext_resource type="FontFile" uid="uid://bojgt46gq8c84" path="res://assets/text/PoorStory-Regular.ttf" id="2_3vuvy"]
[ext_resource type="Texture2D" uid="uid://ifb15r1pr21s" path="res://assets/text/balloons/balloon.png" id="2_7aslg"]

[sub_resource type="Animation" id="Animation_bsjt7"]
length = 0.001
tracks/0/type = "value"
tracks/0/imported = false
tracks/0/enabled = true
tracks/0/path = NodePath("Pivot:position")
tracks/0/interp = 1
tracks/0/loop_wrap = true
tracks/0/keys = {
"times": PackedFloat32Array(0),
"transitions": PackedFloat32Array(1),
"update": 0,
"values": [Vector3(0, -2, 0)]
}
tracks/1/type = "value"
tracks/1/imported = false
tracks/1/enabled = true
tracks/1/path = NodePath("Pivot/Balloon:modulate")
tracks/1/interp = 1
tracks/1/loop_wrap = true
tracks/1/keys = {
"times": PackedFloat32Array(0),
"transitions": PackedFloat32Array(1),
"update": 0,
"values": [Color(1, 1, 1, 0)]
}

[sub_resource type="Animation" id="Animation_4rody"]
resource_name = "fade_in"
tracks/0/type = "value"
tracks/0/imported = false
tracks/0/enabled = true
tracks/0/path = NodePath("Pivot:position")
tracks/0/interp = 2
tracks/0/loop_wrap = true
tracks/0/keys = {
"times": PackedFloat32Array(0, 1),
"transitions": PackedFloat32Array(0.6, 1),
"update": 0,
"values": [Vector3(0, -2, 0), Vector3(0, 0, 0)]
}
tracks/1/type = "value"
tracks/1/imported = false
tracks/1/enabled = true
tracks/1/path = NodePath("Pivot:visible")
tracks/1/interp = 1
tracks/1/loop_wrap = true
tracks/1/keys = {
"times": PackedFloat32Array(0),
"transitions": PackedFloat32Array(1),
"update": 1,
"values": [true]
}
tracks/2/type = "value"
tracks/2/imported = false
tracks/2/enabled = true
tracks/2/path = NodePath("Pivot/Balloon:modulate")
tracks/2/interp = 1
tracks/2/loop_wrap = true
tracks/2/keys = {
"times": PackedFloat32Array(0, 1),
"transitions": PackedFloat32Array(1, 1),
"update": 0,
"values": [Color(1, 1, 1, 0), Color(1, 1, 1, 1)]
}
tracks/3/type = "value"
tracks/3/imported = false
tracks/3/enabled = true
tracks/3/path = NodePath("Pivot/Text:outline_modulate")
tracks/3/interp = 1
tracks/3/loop_wrap = true
tracks/3/keys = {
"times": PackedFloat32Array(0, 1, 1.0001),
"transitions": PackedFloat32Array(1, 1, 1),
"update": 0,
"values": [Color(0, 0, 0, 0), Color(0, 0, 0, 1), Color(0, 0, 0, 1)]
}
tracks/4/type = "value"
tracks/4/imported = false
tracks/4/enabled = true
tracks/4/path = NodePath("Pivot/Text:modulate")
tracks/4/interp = 1
tracks/4/loop_wrap = true
tracks/4/keys = {
"times": PackedFloat32Array(0, 1),
"transitions": PackedFloat32Array(1, 1),
"update": 0,
"values": [Color(0, 0, 0, 0), Color(0, 0, 0, 1)]
}

[sub_resource type="AnimationLibrary" id="AnimationLibrary_xqniy"]
_data = {
"RESET": SubResource("Animation_bsjt7"),
"fade_in": SubResource("Animation_4rody")
}

[node name="SpeechBalloon" type="Node3D"]
script = ExtResource("1_q1uu0")

[node name="Pivot" type="Marker3D" parent="."]
transform = Transform3D(0.2, 0, 0, 0, 0.2, 0, 0, 0, 0.2, 0, -2, 0)

[node name="Balloon" type="Sprite3D" parent="Pivot"]
layers = 3
offset = Vector2(0, -50)
modulate = Color(1, 1, 1, 0)
texture = ExtResource("2_7aslg")

[node name="Text" type="Label3D" parent="Pivot"]
transform = Transform3D(5, 0, 0, 0, 5, 0, 0, 0, 5, 0, 0, 0.1)
outline_render_priority = 0
modulate = Color(0, 0, 0, 1)
text = "Lorem ipsum dolor sit amet, consectetur adipiscing elit."
font = ExtResource("2_3vuvy")
font_size = 68
outline_size = 4
autowrap_mode = 3
width = 750.0

[node name="AnimationPlayer" type="AnimationPlayer" parent="."]
libraries = {
"": SubResource("AnimationLibrary_xqniy")
}

[node name="Timer" type="Timer" parent="."]
one_shot = true
autostart = true
